/* XPM */
static char * highlight_white_xpm[] = {
"40 40 23 1",
" 	c None",
".	c #000000",
"+	c #26860F",
"@	c #34891F",
"#	c #5B8F4E",
"$	c #7A9573",
"%	c #8F998C",
"&	c #999A99",
"*	c #30881A",
"=	c #6C9262",
"-	c #9B9B9B",
";	c #4A8C3A",
">	c #91998F",
",	c #528E43",
"'	c #478C35",
")	c #298612",
"!	c #8B9888",
"~	c #639158",
"{	c #2A8713",
"]	c #969A95",
"^	c #518E43",
"/	c #719369",
"(	c #889784",
"........................................",
".++++++++++++++++++++++++++++++++++++++.",
".++++++++++++++++++++++++++++++++++++++.",
".++++++++++++++++++++++++++++++++++++++.",
".++++++++++++++++++++++++++++++++++++++.",
".++++++++++++++++++++++++++++++++++++++.",
".++++++++++++++++++++++++++++++++++++++.",
".++++++++++++++++++++++++++++++++++++++.",
".++++++++++++++@#$%&&%$#@++++++++++++++.",
".++++++++++++*=----------=*++++++++++++.",
".+++++++++++;>------------>;+++++++++++.",
".++++++++++,----------------,++++++++++.",
".+++++++++'------------------'+++++++++.",
".++++++++)!------------------!)++++++++.",
".++++++++~--------------------~++++++++.",
".+++++++{]--------------------]{+++++++.",
".+++++++^----------------------^+++++++.",
".+++++++/----------------------/+++++++.",
".+++++++(----------------------(+++++++.",
".+++++++]----------------------]+++++++.",
".+++++++------------------------+++++++.",
".+++++++]----------------------]+++++++.",
".+++++++(----------------------(+++++++.",
".+++++++/----------------------/+++++++.",
".+++++++^----------------------^+++++++.",
".+++++++{]--------------------]{+++++++.",
".++++++++~--------------------~++++++++.",
".++++++++)!------------------!)++++++++.",
".+++++++++'------------------'+++++++++.",
".++++++++++,----------------,++++++++++.",
".+++++++++++;>------------>;+++++++++++.",
".++++++++++++*=----------=*++++++++++++.",
".++++++++++++++@#$%&&%$#@++++++++++++++.",
".++++++++++++++++++++++++++++++++++++++.",
".++++++++++++++++++++++++++++++++++++++.",
".++++++++++++++++++++++++++++++++++++++.",
".++++++++++++++++++++++++++++++++++++++.",
".++++++++++++++++++++++++++++++++++++++.",
".++++++++++++++++++++++++++++++++++++++.",
"........................................"};
