/* XPM */
static char * icon_bw_xpm[] = {
"48 48 11 1",
" 	c None",
".	c #000000",
"+	c #363636",
"@	c #848484",
"#	c #BFBFBF",
"$	c #E8E8E8",
"%	c #FCFCFC",
"&	c #494949",
"*	c #FFFFFF",
"=	c #989898",
"-	c #101010",
"                                                ",
"                                                ",
"                                                ",
"                                                ",
"                                                ",
"                                                ",
"                                                ",
"                                                ",
"                                                ",
"                                                ",
"                                                ",
"                     ........                   ",
"                   .+@#$%%$#@+.                 ",
"                 .&#**********#&.               ",
"                .=**************=.              ",
"               -#****************#-             ",
"              .#*****************...            ",
"             .=*****************.....           ",
"             &*****************......           ",
"            .#****************........          ",
"            +****************.........          ",
"           .@***************...........         ",
"           .#**************............         ",
"           .$*************.............         ",
"           .%************..............         ",
"           .%***********...............         ",
"           .$**********................         ",
"           .#*********.................         ",
"           .@********..................         ",
"            +*******..................          ",
"            .#*****...................          ",
"             &****...................           ",
"             .=**....................           ",
"              .#....................            ",
"               ...................-             ",
"                ..................              ",
"                 ................               ",
"                   ............                 ",
"                     ........                   ",
"                                                ",
"                                                ",
"                                                ",
"                                                ",
"                                                ",
"                                                ",
"                                                ",
"                                                ",
"                                                "};
