/* XPM */
static char * black_xpm[] = {
"20 20 27 1",
" 	c None",
".	c #103706",
"+	c #206E0C",
"@	c #3FDD18",
"#	c #3ED817",
"$	c #247E0E",
"%	c #0D2E05",
"&	c #020600",
"*	c #39C816",
"=	c #0C2A04",
"-	c #000000",
";	c #3EDB18",
">	c #0D2F05",
",	c #27890F",
"'	c #0F3606",
")	c #030B01",
"!	c #000200",
"~	c #081C03",
"{	c #195A0A",
"]	c #36BE14",
"^	c #020701",
"/	c #25810E",
"(	c #2A9410",
"_	c #061602",
":	c #3DD617",
"<	c #2C9C11",
"[	c #21740C",
".++++++++++++++++++.",
"+@@@@@@@@@@@@@@@@@@+",
"+@@@@@@@@@@@@@@@@@@+",
"+@@@@@@@@@@@@@@@@@@+",
"+@@@@@#$%&&%$#@@@@@+",
"+@@@@*=------=*@@@@+",
"+@@@;>-------->;@@@+",
"+@@@,----------,@@@+",
"+@@@'----------'@@@+",
"+@@@)----------)@@@+",
"+@@@!----------!@@@+",
"+@@@~----------~@@@+",
"+@@@{----------{@@@+",
"+@@@]^--------^]@@@+",
"+@@@@/--------/@@@@+",
"+@@@@@(_----_(@@@@@+",
"+@@@@@@:<[[<:@@@@@@+",
"+@@@@@@@@@@@@@@@@@@+",
"+@@@@@@@@@@@@@@@@@@+",
".++++++++++++++++++."};
