/* XPM */
static char * top_xpm[] = {
"185 15 14 1",
" 	c None",
".	c #C3C3C3",
"+	c #828282",
"@	c #000000",
"#	c #414141",
"$	c #6D6D6D",
"%	c #2C2C2C",
"&	c #161616",
"*	c #989898",
"=	c #AEAEAE",
"-	c #575757",
";	c #929292",
">	c #626262",
",	c #717171",
".........................................................................................................................................................................................",
".........................................................................................................................................................................................",
".........................................................................................................................................................................................",
"........................+@+................#@@@@$...............%@@&*.............+@@@@%..............+@@@@#...............#@@@@+..............*&@@%.............+@...+#.................",
"........................%%#................##..+&..............%#*=$&.............+@..*#-.............+@...................##.................*&$=*#-............+@...+#.................",
"........................@+@+...............##...@.............+@=.................+@...=@+............+@...................##.................#%.................+@...+#.................",
".......................+#.##...............#&##&-.............+@..................+@....@+............+@###*...............#&###..............##..+++=...........+@###%#.................",
".......................#+.+@...............##...%*............+@..................+@....@+............+@...................##.................##..++@+...........+@...+#.................",
"......................*&###&*..............##...#+............*@*...#.............+@...*&*............+@...................##.................-&...=@+...........+@...+#.................",
"......................-%...$-..............##..#@=.............-&$*%%.............+@..$&$.............+@...................##.................=%%*$&@+...........+@...+#.................",
"......................$$...*$..............$####*...............$##-=.............*####$..............*#####...............$$..................=-##+-*...........*#...*$.................",
".........................................................................................................................................................................................",
".........................................................................................................................................................................................",
".........................................................................................................................................................................................",
"..............;>>>>>>>,>>>>>>>>>>>>>>>>>>>>>>>>>>>>>>>>>>>>>>>>>>>>>>>>>>>>>>>>>>>>>>>>>>>>>>>>>>>>>>>>>>>>>>>>>>>>>>>>>>>>>>>>>>>>>>>>>>>>>>>>>>>>>>>>>>>>>>>>>>>>>>>>>>>>>>>>;........."};
